Insepection Summary
…
    center_name=gsub("inc","",center_name),
    center_name=gsub("th","",center_name),
    center_name=gsub("school","",center_name),
    center_name=gsub("center","",center_name),
    center_name=gsub("ctr","",center_name)
  )%>%
  mutate(borough = as.factor(borough), program_type = as.factor(program_type)) %>%
   filter(violation_category != "NO VIOLATION") %>% 
  mutate(violation_category = "VIOLATION") %>% 
  group_by(center_name,borough) %>% 
  count() %>% 
  arrange(desc(n))
children_center_name

## # A tibble: 1,706 × 3
## # Groups:   center_name, borough [1,706]
##    center_name                    borough       n
##    <chr>                          <fct>     <int>
##  1 beanstalkchildcareacademy      BRONX       189
##  2 noreastbronxdaycare            BRONX       116
##  3 childrenofamericaqueens        QUEENS      102
##  4 brighorizonschildrenss         MANHATTAN    94
##  5 montessoriprogressivelearning  QUEENS       90
##  6 qsac                           QUEENS       78
##  7 allmystarsdaycare              QUEENS       73
##  8 habitot                        BRONX        73
##  9 littlescholarsearlydevelopment BRONX        68
## 10 booksrattles                   QUEENS       63
## # … with 1,696 more rows
…
